\relax 
\@writefile{lot}{\contentsline {table}{\numberline {1}{\ignorespaces Evaluation of multi fly classifier's performance on non-training videos. Minimum to maximum range of scores shown for each.}}{1}}
\newlabel{multiflyGT}{{1}{1}}
\@writefile{lot}{\contentsline {table}{\numberline {2}{\ignorespaces Performance measures of sex classifier on 3-fold cross validation.}}{1}}
\newlabel{sexCV}{{2}{1}}
\@writefile{lot}{\contentsline {table}{\numberline {3}{\ignorespaces Evaluation of sex classifier's performance on non-training videos. }}{1}}
\newlabel{sexGT}{{3}{1}}
\@writefile{lot}{\contentsline {table}{\numberline {4}{\ignorespaces Evaluation of chase classifier's performance on 3-fold cross validation}}{2}}
\newlabel{chaseCV}{{4}{2}}
\@writefile{lot}{\contentsline {table}{\numberline {5}{\ignorespaces Evaluation of chase classifier's performance on non-training videos.}}{2}}
\newlabel{chaseGT}{{5}{2}}
\@writefile{lot}{\contentsline {table}{\numberline {6}{\ignorespaces fly profiles on non training videos}}{2}}
\newlabel{flyProfiles}{{6}{2}}
