minutes,seconds,join_leave,colour,nmales,nfemales
0,0,0,0,3,4
0,2,-1,y,2,4
0,5,-1,y,1,4
0,8,1,y,2,4
0,9,1,y,3,4
0,9,1,y,4,4
0,12,-1,y,3,4
0,15,1,y,4,4
0,15,1,y,5,4
0,16,-1,y,4,4
0,17,-1,y,3,4
0,17,-1,y,2,4
0,17,-1,y,1,4
0,20,1,y,2,4
0,21,-1,y,1,4
0,22,1,y,2,4
0,22,1,y,3,4
0,22,-1,y,2,4
0,24,-1,y,1,4
0,25,1,y,2,4
0,29,-1,y,1,4
0,37,1,y,2,4
0,55,-1,y,1,4
1,7,1,y,2,4
1,10,-1,y,1,4
1,11,1,y,2,4
1,15,-1,y,1,4
1,19,1,y,2,4
1,20,-1,y,1,4
1,24,-1,y,0,4
1,27,1,y,1,4
1,49,1,y,2,4
1,58,-1,y,1,4
2,31,-1,y,0,4
2,32,1,y,1,4
2,32,1,y,2,4
2,38,-1,y,1,4
2,48,-1,y,0,4
2,52,1,y,1,4
2,53,1,y,2,4
3,4,-1,y,1,4
3,11,-1,y,0,4
3,12,1,y,1,4
3,13,1,y,2,4
3,14,-1,y,1,4
3,27,1,y,1,5
3,31,1,y,2,5
3,33,1,y,3,5
3,35,-1,y,2,5
3,42,1,y,3,5
3,49,-1,y,2,5
4,3,1,y,3,5
4,12,1,y,4,5
4,16,1,y,4,6
4,21,-1,b,4,5
4,22,-1,y,3,5
4,26,1,y,4,5
4,26,-1,b,4,4
4,26,-1,y,3,4
4,27,1,y,4,4
4,36,-1,y,3,4
4,41,1,b,3,5
4,41,1,y,4,5
5,0,1,y,5,5
5,0,-1,b,5,4
5,3,-1,y,4,4
5,3,-1,y,3,4
5,3,1,b,3,5
5,4,-1,y,2,5
5,9,-1,b,2,4
5,11,1,y,3,4
5,14,1,y,4,4
5,16,1,y,5,4
5,17,1,b,5,5
5,18,-1,y,4,5
5,18,-1,y,3,5
5,18,-1,y,2,5
5,20,1,y,3,5
5,20,1,y,4,5
5,20,1,y,5,5
5,21,1,y,6,5
5,23,-1,y,5,5
5,26,-1,y,4,5
5,27,1,y,5,5
5,32,-1,y,4,5
5,35,1,y,5,5
5,35,-1,y,4,5
5,37,-1,y,5,5
5,42,-1,y,4,5
5,43,-1,y,3,5
5,45,1,y,4,5
5,46,1,y,5,5
5,49,-1,y,4,5
5,49,-1,y,3,5
5,49,-1,y,2,5
5,49,-1,y,1,5
5,50,-1,b,1,4
5,50,1,y,2,4
5,50,1,y,3,4
5,50,1,y,4,4
5,52,-1,y,3,4
5,52,1,y,4,4
5,53,-1,y,3,4
5,53,1,y,4,4
5,54,1,y,5,4
5,54,1,b,5,5
5,55,-1,b,4,5
5,55,-1,y,3,5
5,56,1,y,4,5
5,58,1,y,5,5
6,0,-1,b,5,4
6,0,1,y,6,4
6,1,-1,y,5,4
6,1,-1,y,4,4
6,2,1,b,5,5
6,3,-1,y,4,5
6,7,1,y,5,5
6,9,1,y,6,5
6,11,-1,b,6,4
6,12,-1,y,5,4
6,12,1,b,5,5
6,17,1,y,6,5
6,17,-1,y,5,5
6,17,-1,y,4,5
6,17,-1,b,6,4
6,17,-1,y,5,4
6,20,-1,y,4,4
6,21,-1,y,3,4
6,23,1,y,4,4
6,24,1,y,5,4
6,26,-1,y,4,4
6,26,1,y,5,4
6,27,1,y,6,4
6,27,1,y,6,5
6,28,-1,b,6,4
6,28,-1,y,5,4
6,28,-1,y,4,4
6,30,1,b,4,5
6,31,1,y,5,5
6,33,1,y,6,5
6,33,-1,y,5,5
6,35,-1,y,4,5
6,35,-1,y,3,5
6,35,1,y,4,5
6,35,-1,y,3,5
6,35,1,y,4,5
6,40,-1,y,3,5
6,41,1,y,4,5
6,43,-1,b,4,4
6,43,1,y,5,4
6,43,-1,y,4,4
6,43,-1,y,3,4
6,44,-1,y,2,4
6,44,1,y,3,4
6,46,-1,y,2,4
6,47,1,y,3,4
6,47,1,y,4,4
6,47,1,y,5,4
6,48,-1,y,4,4
6,48,-1,y,3,4
6,49,-1,y,2,4
6,49,-1,y,1,4
6,50,1,y,2,4
6,50,1,y,3,4
6,51,1,y,4,4
6,51,1,y,5,4
6,52,-1,y,4,4
6,52,-1,y,3,4
6,52,1,y,4,4
6,53,1,y,5,4
6,56,-1,y,4,4
6,56,-1,y,3,4
6,57,1,y,4,4
6,59,1,y,5,4
7,0,-1,y,4,4
7,1,-1,y,3,4
7,1,-1,y,2,4
7,4,1,y,3,4
7,4,1,y,4,4
7,5,1,y,5,4
7,5,1,y,6,4
7,5,-1,y,5,4
7,6,-1,y,4,4
7,7,-1,y,3,4
7,7,1,y,4,4
7,7,1,y,5,4
7,8,1,y,6,4
7,9,-1,y,5,4
7,9,-1,y,4,4
7,9,1,y,5,4
7,10,1,y,6,4
7,12,-1,y,5,4
7,15,-1,y,4,4
7,16,1,y,5,4
7,16,-1,y,4,4
7,17,-1,y,3,4
7,18,-1,y,2,4
7,19,1,y,3,4
7,19,1,y,4,4
7,23,1,y,5,4
7,35,-1,y,4,4
7,36,-1,y,3,4
7,38,1,y,4,4
7,38,1,y,5,4
7,38,1,y,6,4
7,38,-1,y,5,4
7,40,1,y,6,4
7,40,-1,y,5,4
7,42,1,y,6,4
7,43,-1,y,5,4
7,44,1,y,6,4
7,46,-1,y,5,4
7,46,-1,y,4,4
7,51,-1,y,3,4
7,54,1,y,4,4
7,55,-1,y,3,4
7,55,-1,y,4,4
7,58,1,y,5,4
7,59,-1,y,4,4
8,1,-1,y,3,4
8,3,1,y,4,4
8,4,-1,y,3,4
8,4,-1,y,2,4
8,5,1,y,3,4
8,5,1,y,4,4
8,7,-1,y,3,4
8,7,1,y,4,4
8,10,1,y,5,4
8,11,-1,y,4,4
8,12,-1,y,3,4
8,18,-1,y,2,4
8,19,-1,y,1,4
8,19,-1,y,2,4
8,22,1,y,3,4
8,26,1,y,4,4
8,27,-1,y,3,4
8,29,1,y,4,4
8,31,-1,y,3,4
8,32,1,y,4,4
8,32,-1,y,3,4
8,33,-1,y,2,4
8,37,1,y,3,4
8,37,1,y,4,4
8,38,-1,y,3,4
8,38,1,y,4,4
8,42,1,y,5,4
8,43,-1,y,4,4
8,43,-1,y,3,4
8,47,-1,y,2,4
8,47,-1,y,3,4
8,48,1,y,4,4
8,51,-1,y,3,4
8,51,-1,y,2,4
8,51,-1,y,1,4
8,52,1,y,2,4
8,53,1,y,3,4
9,0,-1,y,2,4
9,0,1,y,3,4
9,0,-1,y,2,4
9,2,1,y,3,4
9,2,-1,y,2,4
9,5,1,y,3,4
9,12,-1,y,2,4
9,16,-1,y,1,4
9,19,1,y,2,4
9,26,1,y,3,4
9,32,-1,y,4,4
9,34,-1,y,3,4
9,35,-1,y,2,4
9,37,1,y,3,4
9,38,1,y,4,4
9,40,-1,y,3,4
9,40,1,y,4,4
9,41,1,y,5,4
9,42,-1,y,4,4
9,44,-1,y,3,4
9,47,-1,y,2,4
9,47,-1,y,1,4
9,50,1,y,2,4
9,50,1,y,3,4
9,54,-1,y,2,4
9,54,-1,y,1,4
9,56,1,y,2,4
9,56,-1,y,1,4
10,3,-1,y,0,4
10,6,1,y,1,4
10,6,1,y,2,4
10,10,-1,y,1,4
10,10,-1,y,0,4
10,12,1,y,1,4
10,12,1,y,2,4
10,12,1,y,3,4
10,12,1,y,4,4
10,15,1,y,5,4
10,15,-1,y,4,4
10,16,-1,y,3,4
10,20,1,y,4,4
10,21,1,y,5,4
10,21,-1,y,4,4
10,21,-1,y,3,4
10,22,-1,y,2,4
10,22,-1,y,1,4
10,24,1,y,2,4
10,30,-1,y,1,4
10,35,1,y,2,4
10,39,1,y,3,4
10,44,-1,y,2,4
10,44,1,y,3,4
10,44,1,y,4,4
10,46,1,y,5,4
10,47,-1,y,4,4
10,47,-1,y,3,4
10,48,-1,y,2,4
10,49,1,y,3,4
10,50,1,y,4,4
10,51,-1,y,3,4
10,53,-1,y,2,4
10,56,1,y,3,4
10,58,-1,y,2,4
11,0,-1,y,1,4
11,3,1,y,2,4
11,4,-1,y,1,4
11,7,1,y,2,4
11,9,-1,y,1,4
11,13,1,y,2,4
11,16,-1,y,1,4
11,17,1,y,2,4
11,17,-1,y,1,4
11,17,-1,y,0,4
11,20,1,y,1,4
11,20,1,y,2,4
11,27,-1,y,1,4
11,31,1,y,2,4
11,34,-1,y,1,4
11,35,-1,y,0,4
11,37,1,y,1,4
11,37,1,y,2,4
11,37,1,y,3,4
11,38,-1,y,2,4
11,38,-1,y,1,4
11,40,1,y,2,4
11,41,1,y,3,4
11,42,-1,y,2,4
11,48,-1,y,1,4
11,49,-1,y,0,4
11,50,1,y,1,4
11,54,-1,y,0,4
11,54,1,y,1,4
12,2,-1,y,0,4
12,2,1,y,1,4
12,26,1,y,2,4
12,30,-1,y,1,4
12,32,1,y,2,4
12,34,-1,y,1,4
12,38,-1,y,0,4
12,40,1,y,1,4
12,40,1,y,2,4
12,43,1,y,3,4
12,46,-1,y,2,4
12,48,1,y,3,4
12,50,-1,y,2,4
12,51,1,y,3,4
12,52,-1,y,2,4
12,53,-1,y,1,4
12,55,-1,y,0,4
12,57,-1,y,1,4
13,3,-1,y,0,4
13,5,1,y,1,4
13,5,-1,y,0,4
13,12,1,y,1,4
13,20,-1,y,0,4
13,20,1,y,1,4
13,56,1,y,2,4
14,4,-1,y,1,4
14,8,-1,y,0,4
14,11,1,y,1,4
14,29,1,y,2,4
14,47,-1,y,1,4
14,49,1,y,2,4
14,52,-1,y,1,4
14,54,1,y,2,4
14,58,-1,y,1,4
15,1,1,y,2,4
15,3,-1,y,1,4
15,8,1,y,2,4
15,15,-1,y,1,4
15,16,1,y,2,4
16,9,-1,b,2,3
16,15,1,b,2,4
17,27,-1,y,1,4
17,29,1,y,2,4
17,32,-1,y,1,4
17,35,1,y,2,4
17,39,-1,y,1,4
17,41,1,y,2,4
17,44,-1,b,2,3
17,44,-1,y,1,3
17,44,-1,y,0,3
17,50,1,y,1,3
17,52,1,b,1,4
17,57,1,y,2,4
18,2,-1,b,2,3
18,6,1,b,2,4
18,6,-1,y,1,4
18,8,1,y,2,4
18,27,-1,b,2,3
18,28,-1,b,2,2
18,30,1,b,2,3
18,30,-1,y,1,3
18,32,1,y,2,3
18,45,1,b,2,4
18,46,-1,y,1,4
18,46,-1,b,1,3
18,46,-1,b,0,3
18,53,1,y,1,3
18,57,-1,y,0,3
18,59,1,y,1,3
19,3,1,y,2,3
19,6,-1,y,1,3
19,9,1,y,2,3
19,9,-1,y,1,3
19,11,1,y,2,3
19,12,-1,Y,1,3
19,12,1,B,1,4
19,13,1,Y,2,4
19,17,-1,y,1,4
19,20,1,y,2,4
19,20,-1,b,2,3
19,22,-1,y,1,3
19,22,1,b,1,4
19,29,1,y,2,4
19,30,-1,y,1,4
19,30,1,y,2,4
19,30,1,y,3,4
19,33,-1,y,2,4
19,34,1,y,3,4
19,35,-1,y,2,4
19,36,1,y,3,4
19,38,-1,y,2,4
19,40,-1,y,1,4
19,41,1,y,2,4
19,41,1,y,3,4
19,44,-1,y,2,4
19,44,-1,y,1,4
19,54,1,y,2,4
19,57,1,y,3,4
19,58,-1,y,2,4
19,58,-1,y,1,4
20,0,1,y,2,4
20,1,-1,b,2,3
20,1,-1,y,1,3
20,1,1,b,1,4
20,1,1,y,2,4
20,15,1,b,2,5
20,15,-1,y,1,5
20,18,1,y,2,5
20,21,-1,b,2,4
20,21,-1,y,1,4
20,23,1,b,1,5
20,24,1,y,2,5
20,26,-1,b,2,4
20,30,1,b,2,5
20,31,-1,y,1,5
20,35,1,y,2,5
20,45,-1,y,1,5
20,47,1,y,2,5
20,50,-1,b,2,4
20,54,1,b,2,5
20,55,-1,y,1,5
20,57,-1,y,0,5
20,57,1,y,1,5
20,57,1,y,2,5
20,59,-1,y,1,5
21,0,-1,b,1,4
21,7,1,y,2,4
21,13,-1,y,1,4
21,13,-1,b,1,3
21,17,1,b,2,3
21,28,-1,y,1,3
21,40,1,y,2,3
21,40,-1,y,1,3
21,46,1,y,2,3
21,55,-1,y,1,3
21,57,-1,y,0,3
21,58,1,y,1,3
22,1,1,y,2,3
22,21,1,y,3,3
22,27,-1,y,2,3
22,28,-1,y,1,3
22,28,1,y,2,3
22,28,1,y,3,3
22,29,-1,y,2,3
22,31,-1,y,1,3
22,34,1,y,2,3
22,35,1,y,3,3
22,36,-1,y,2,3
22,37,-1,y,1,3
22,39,1,y,2,3
22,39,1,y,3,3
22,41,-1,y,2,3
22,42,-1,y,1,3
22,44,1,y,2,3
22,51,-1,b,2,2
22,51,-1,y,1,2
22,52,1,y,2,2
22,54,1,b,2,3
22,54,1,y,3,3
22,54,-1,y,2,3
22,57,1,y,3,3
23,0,1,y,4,3
23,1,-1,y,3,3
23,3,1,y,4,3
23,3,-1,y,3,3
23,3,-1,y,2,3
23,5,1,y,3,3
23,5,-1,y,2,3
23,5,1,y,3,3
23,6,-1,y,2,3
23,6,1,y,3,3
23,8,-1,y,2,3
23,8,1,y,3,3
23,10,-1,y,2,3
23,28,1,y,3,3
23,28,1,y,4,3
23,30,-1,y,3,3
23,32,-1,y,2,3
23,32,1,y,3,3
23,32,1,y,4,3
23,33,-1,y,3,3
23,33,1,y,4,3
23,39,-1,y,3,3
23,40,-1,y,2,3
23,41,1,y,3,3
23,45,1,y,4,3
23,47,-1,y,3,3
24,0,-1,y,2,3
24,1,-1,y,1,3
24,2,1,y,2,3
24,3,1,y,2,4
24,4,1,y,3,4
24,6,-1,b,3,3
24,6,-1,y,2,3
24,6,-1,y,1,3
24,6,-1,y,0,3
24,7,1,b,0,4
24,8,1,y,1,4
24,10,1,y,2,4
24,10,1,y,3,4
24,13,-1,b,3,3
24,13,-1,y,2,3
24,13,-1,y,1,3
24,14,-1,y,0,3
24,16,1,b,0,4
24,16,1,y,1,4
24,16,1,y,2,4
24,16,1,y,3,4
24,19,-1,y,2,4
24,20,1,y,3,4
24,21,1,y,4,4
24,23,-1,y,3,4
24,25,1,y,4,4
24,25,-1,y,3,4
24,28,1,y,4,4
24,29,-1,y,3,4
24,30,1,y,3,4
24,32,-1,y,2,4
24,32,1,y,3,4
24,33,1,y,4,4
24,36,-1,y,3,4
24,36,1,y,2,4
24,38,1,y,3,4
24,42,-1,y,2,4
24,43,1,y,3,4
24,43,1,y,4,4
24,44,-1,y,3,4
24,45,-1,y,2,4
24,45,1,y,3,4
24,47,1,y,4,4
24,49,-1,y,3,4
24,50,-1,y,2,4
24,50,-1,b,2,3
24,51,-1,y,1,3
24,52,1,y,2,3
24,52,1,y,3,3
24,52,-1,y,2,3
24,54,-1,y,1,3
24,54,-1,y,0,3
24,55,1,y,1,3
24,59,-1,y,0,3
25,4,1,y,1,3
25,6,-1,y,0,3
25,7,1,y,1,3
25,7,1,y,2,3
25,7,1,y,3,3
25,8,-1,y,2,3
25,9,-1,y,1,3
25,10,-1,y,0,3
25,11,1,y,1,3
25,14,1,b,1,4
25,16,1,y,2,4
25,16,1,y,3,4
25,17,-1,y,2,4
25,22,-1,y,1,4
25,25,-1,b,1,3
25,28,1,y,2,3
25,32,1,b,2,4
25,33,1,y,3,4
25,33,-1,y,2,4
25,34,-1,y,1,4
25,35,1,y,2,4
25,35,1,y,3,4
25,42,-1,y,2,4
25,42,1,y,3,4
25,48,-1,b,3,3
25,49,-1,y,2,3
25,50,-1,y,1,3
25,51,-1,y,0,3
25,53,1,y,1,3
25,56,1,b,1,4
25,56,-1,y,0,4
25,57,1,y,1,4
25,58,1,y,2,4
25,58,1,y,3,4
25,59,-1,y,2,4
26,0,-1,y,1,4
26,2,1,y,2,4
26,2,1,y,3,4
26,7,-1,y,2,4
26,9,1,y,3,4
26,9,-1,y,2,4
26,12,1,y,3,4
26,13,-1,y,2,4
26,14,-1,y,1,4
26,15,1,y,2,4
26,17,-1,y,1,4
26,20,-1,y,0,4
26,28,1,y,1,4
26,28,1,y,2,4
26,29,1,y,3,4
26,31,-1,y,2,4
26,33,-1,y,1,4
26,34,-1,y,0,4
26,47,1,y,1,4
26,47,1,y,2,4
27,2,-1,y,1,4
27,4,1,y,2,4
27,9,-1,y,1,4
27,13,1,y,2,4
27,14,-1,y,1,4
27,16,1,y,2,4
27,22,-1,y,1,4
27,24,1,y,2,4
27,28,-1,y,1,4
27,33,1,y,2,4
27,35,-1,b,2,3
27,39,1,b,2,4
27,47,-1,b,2,3
27,49,-1,y,1,3
27,50,1,y,2,3
27,51,-1,y,1,3
27,55,-1,y,0,3
27,56,1,y,1,3
27,58,-1,y,0,3
27,59,1,y,1,3
28,1,1,y,2,3
28,5,-1,y,1,3
28,8,1,y,2,3
28,8,1,y,3,3
28,9,-1,y,2,3
28,10,1,y,3,3
28,15,-1,y,2,3
28,16,1,y,3,3
28,17,1,y,4,3
28,21,-1,y,3,3
28,23,-1,y,2,3
28,24,-1,y,1,3
28,26,-1,y,0,3
28,26,1,y,1,3
28,29,1,y,2,3
28,32,-1,y,1,3
28,32,-1,y,0,3
28,33,1,b,0,4
28,34,1,y,1,4
28,45,1,y,2,4
28,57,-1,y,1,4
29,12,1,y,2,4
29,23,-1,y,1,4
29,24,1,y,2,4
29,25,-1,y,1,4
29,28,1,y,2,4
29,29,-1,y,1,4
29,30,1,y,2,4
29,31,-1,y,1,4
29,34,1,y,2,4
29,37,-1,y,1,4
29,58,1,y,2,4
30,3,1,y,3,4
30,8,-1,y,2,4
30,9,-1,y,1,4
30,10,1,y,2,4
30,10,1,y,3,4
30,13,-1,y,2,4
30,13,-1,y,1,4
30,14,1,y,2,4
30,39,1,y,3,4
30,52,-1,y,2,4
30,54,1,y,3,4
31,0,-1,y,2,4
31,0,-1,y,1,4
31,2,1,y,2,4
31,23,1,b,2,5
31,34,1,y,3,5
31,41,-1,y,2,5
31,58,-1,y,1,5
32,0,1,y,2,5
32,30,1,y,3,5
32,32,1,y,4,5
32,36,-1,b,4,4
32,37,-1,y,3,4
32,38,-1,y,2,4
32,38,-1,y,1,4
32,39,1,y,2,4
32,42,1,y,3,4
32,42,1,y,4,4
32,46,-1,y,3,4
32,51,-1,y,2,4
32,52,-1,y,1,4
32,54,1,y,2,4
32,54,1,y,3,4
32,55,-1,y,2,4
32,55,-1,y,1,4
32,55,1,y,2,4
32,57,1,y,3,4
32,57,1,y,4,4
33,9,-1,y,3,4
33,12,1,y,4,4
33,13,-1,y,3,4
33,15,1,y,4,4
33,18,-1,y,3,4
33,18,-1,y,2,4
33,19,1,y,3,4
33,19,1,y,4,4
33,19,-1,y,3,4
33,22,-1,y,2,4
33,23,1,y,3,4
33,23,1,y,4,4
33,24,-1,y,3,4
33,24,-1,y,2,4
33,28,1,y,3,4
33,28,1,y,4,4
33,31,-1,y,3,4
33,31,-1,y,2,4
33,34,1,y,3,4
33,36,-1,y,2,4
33,37,-1,y,1,4
33,39,1,y,2,4
33,39,1,y,3,4
33,42,-1,y,2,4
33,42,-1,y,1,4
33,42,1,y,2,4
33,43,1,y,3,4
33,45,-1,y,2,4
33,45,1,y,3,4
33,47,1,y,4,4
33,51,-1,y,3,4
33,51,-1,y,2,4
33,58,1,y,3,4
33,59,-1,y,2,4
34,3,1,y,3,4
34,4,-1,y,2,4
34,6,1,y,3,4
34,9,-1,y,2,4
34,9,-1,y,1,4
34,12,1,y,2,4
34,12,1,y,3,4
34,14,1,y,4,4
34,17,-1,y,3,4
34,25,-1,y,2,4
34,25,-1,y,1,4
34,28,1,y,2,4
34,33,1,y,3,4
34,34,-1,y,2,4
34,37,1,y,3,4
34,42,1,y,4,4
34,44,-1,y,3,4
34,50,1,y,4,4
34,53,-1,y,3,4
34,59,1,y,4,4
35,13,-1,y,3,4
35,15,-1,y,2,4
35,19,1,y,3,4
35,19,-1,y,2,4
35,20,-1,y,1,4
35,20,1,y,2,4
35,21,-1,y,1,4
35,22,1,y,2,4
35,22,1,y,3,4
35,26,-1,y,2,4
35,27,-1,y,1,4
35,29,1,y,2,4
35,29,1,y,3,4
35,30,-1,y,2,4
35,31,1,y,3,4
35,37,-1,y,2,4
35,52,1,y,3,4
35,53,-1,y,2,4
35,53,-1,y,1,4
35,55,1,y,2,4
35,59,-1,y,1,4
36,2,1,y,2,4
36,6,1,y,3,4
36,8,-1,y,2,4
36,10,1,y,3,4
36,23,-1,y,2,4
36,35,1,y,3,4
36,45,-1,y,2,4
36,48,1,y,3,4
36,50,1,y,4,4
36,50,-1,y,3,4
36,53,-1,y,2,4
36,54,1,y,3,4
37,6,-1,y,2,4
37,20,-1,y,1,4
37,23,1,y,2,4
37,23,1,y,3,4
37,41,-1,y,2,4
37,43,1,y,3,4
37,43,-1,y,2,4
37,46,1,y,3,4
37,48,1,y,4,4
37,53,-1,y,3,4
37,57,1,y,4,4
38,0,-1,y,3,4
38,2,1,y,4,4
38,2,-1,y,3,4
38,3,-1,y,2,4
38,4,1,y,3,4
38,6,1,y,4,4
38,8,-1,y,3,4
38,8,-1,y,2,4
38,18,1,y,3,4
38,28,-1,y,2,4
38,32,1,y,3,4
39,2,-1,y,2,4
39,6,1,y,3,4
39,20,-1,y,2,4
39,28,-1,y,1,4
39,44,1,y,2,4
39,46,1,b,2,5
39,50,-1,b,2,4
39,50,-1,y,1,4
39,52,1,y,2,4
40,16,-1,y,1,4
40,18,1,y,2,4
40,22,-1,y,1,4
40,23,1,y,2,4
40,43,-1,b,2,3
40,45,-1,y,1,3
40,58,1,y,2,3
41,4,1,y,3,3
41,9,-1,y,2,3
41,11,-1,y,1,3
41,12,1,y,2,3
41,12,1,y,3,3
41,13,-1,y,2,3
41,14,-1,y,1,3
41,17,1,y,2,3
41,21,1,y,3,3
41,22,-1,y,2,3
41,22,-1,y,1,3
41,27,1,y,2,3
41,37,1,b,2,4
42,3,1,y,3,4
42,20,-1,y,2,4
42,27,-1,y,1,4
42,28,1,y,2,4
42,47,1,y,3,4
42,53,-1,y,2,4
43,0,-1,y,1,4
43,2,1,y,2,4
43,17,1,y,3,4
43,41,-1,y,2,4
43,44,1,b,2,5
43,44,1,y,3,5
43,48,-1,y,2,5
43,52,-1,y,1,5
43,54,1,y,2,5
44,3,1,y,3,5
44,9,-1,b,3,4
44,11,1,b,3,5
44,12,1,y,4,5
44,25,-1,b,4,4
44,28,1,b,4,5
44,29,-1,y,3,5
44,30,-1,y,2,5
44,32,1,y,3,5
44,33,1,y,4,5
44,38,-1,y,3,5
44,40,1,y,4,5
44,42,-1,y,3,5
44,44,1,y,4,5
44,47,-1,b,4,4
44,47,-1,y,3,4
44,47,-1,y,2,4
44,49,1,b,2,5
44,52,1,y,3,5
44,53,-1,y,2,5
44,55,1,y,3,5
44,56,-1,y,2,5
44,57,-1,y,1,5
44,58,1,y,2,5
44,59,1,y,3,5
45,8,1,y,4,5
45,9,-1,y,3,5
45,9,-1,y,2,5
45,10,1,y,3,5
45,14,-1,y,2,5
45,16,1,y,3,5
45,16,1,y,4,5
45,17,-1,y,3,5
45,19,1,y,4,5
45,20,-1,y,3,5
45,22,1,y,4,5
45,25,1,y,5,5
45,26,-1,y,4,5
45,29,-1,y,3,5
45,30,1,y,4,5
45,34,-1,y,3,5
45,34,-1,y,2,5
45,34,-1,y,1,5
45,36,1,y,2,5
45,36,1,y,3,5
45,54,1,y,4,5
46,0,-1,y,3,5
46,3,1,y,4,5
46,6,-1,y,3,5
46,8,1,y,4,5
46,9,-1,y,3,5
46,11,1,y,4,5
46,12,-1,y,3,5
46,14,1,y,4,5
46,14,-1,y,3,5
46,18,1,y,4,5
46,25,-1,y,3,5
46,25,-1,y,2,5
46,25,-1,y,1,5
46,28,1,y,2,5
46,28,1,y,3,5
46,29,-1,y,2,5
46,33,-1,y,1,5
46,33,1,y,2,5
46,35,-1,b,2,4
46,35,-1,y,1,4
46,39,1,y,2,4
46,43,-1,y,1,4
46,45,1,y,2,4
46,45,1,y,3,4
46,49,1,y,4,4
46,56,-1,y,3,4
46,56,-1,y,2,4
46,57,-1,y,1,4
47,0,1,y,2,4
47,5,-1,y,1,4
47,9,1,y,2,4
47,9,1,b,2,5
47,19,-1,y,1,5
47,20,1,y,2,5
47,36,-1,y,1,5
47,52,1,y,2,5
47,52,1,y,3,5
48,0,1,y,4,5
48,7,-1,y,3,5
48,9,-1,y,2,5
48,11,-1,y,1,5
48,12,1,y,2,5
48,15,-1,y,1,5
48,19,1,y,2,5
48,23,1,y,3,5
48,35,-1,y,2,5
48,48,1,y,3,5
48,49,1,y,4,5
48,58,-1,y,3,5
49,7,1,y,4,5
49,7,-1,y,3,5
49,9,-1,y,4,5
49,11,-1,y,3,5
49,11,-1,y,2,5
49,11,-1,y,1,5
49,13,1,y,2,5
49,14,1,y,3,5
49,18,-1,y,2,5
49,20,1,y,3,5
49,21,1,y,4,5
49,24,1,y,5,5
49,29,-1,y,4,5
49,29,-1,y,3,5
49,35,1,y,4,5
49,39,-1,y,3,5
49,51,-1,y,2,5
50,0,-1,y,1,5
50,3,1,y,2,5
50,13,1,y,3,5
50,22,1,y,4,5
50,28,-1,y,3,5
50,29,1,y,4,5
50,31,-1,y,3,5
50,32,-1,y,2,5
50,34,1,y,3,5
50,37,-1,y,2,5
50,43,1,y,3,5
51,1,-1,b,3,4
51,1,-1,y,2,4
51,11,1,y,3,4
51,16,1,y,4,4
51,22,-1,y,3,4
51,23,-1,y,2,4
51,23,1,y,3,4
51,26,-1,y,2,4
51,27,1,y,3,4
51,27,-1,b,3,3
51,28,-1,y,2,3
51,29,1,b,2,4
51,33,1,y,3,4
51,45,-1,y,2,4
51,48,1,y,3,4
51,49,-1,y,2,4
51,58,1,y,3,4
52,14,-1,y,2,4
52,14,-1,y,1,4
52,16,1,y,2,4
52,20,-1,y,1,4
52,24,1,y,2,4
52,27,1,y,3,4
52,28,-1,y,2,4
52,30,1,y,3,4
52,41,-1,y,2,4
52,44,-1,b,2,3
52,45,1,b,2,4
52,45,1,b,3,4
53,12,-1,b,3,3
53,14,1,y,4,3
53,18,-1,y,3,3
53,20,-1,y,2,3
53,20,1,b,2,4
53,22,1,y,3,4
53,30,-1,b,3,3
53,33,-1,b,3,2
53,33,1,y,4,2
53,35,1,y,4,3
53,35,-1,y,3,3
53,37,1,y,4,3
53,39,-1,y,3,3
53,41,1,y,4,3
53,46,-1,y,3,3
53,46,1,y,4,3
53,53,-1,y,3,3
53,55,-1,y,2,3
54,2,1,y,3,3
54,2,1,y,4,3
54,4,-1,y,3,3
54,4,-1,y,2,3
54,6,1,y,3,3
54,6,1,y,4,3
54,7,-1,y,3,3
54,14,1,y,4,3
54,15,-1,y,3,3
54,16,1,y,4,3
54,24,-1,y,3,3
54,26,1,y,4,3
54,30,-1,y,3,3
54,32,-1,y,2,3
54,33,1,y,3,3
54,35,1,y,4,3
54,40,-1,y,3,3
54,40,-1,y,2,3
54,42,1,b,2,4
54,42,1,y,3,4
54,44,-1,y,2,4
54,45,1,y,3,4
54,55,-1,b,3,3
54,56,1,b,3,4
54,56,1,y,4,4
55,3,-1,y,3,4
55,5,1,y,4,4
55,5,-1,y,3,4
55,7,1,y,4,4
55,12,-1,b,4,3
55,13,-1,y,3,3
55,13,-1,y,2,3
55,14,1,b,2,4
55,14,-1,y,1,4
55,16,1,y,2,4
55,16,1,y,3,4
55,16,1,y,4,4
55,18,-1,y,3,4
55,18,-1,y,2,4
55,19,-1,y,1,4
55,19,1,y,2,4
55,21,1,y,3,4
55,23,-1,y,2,4
55,23,-1,y,1,4
55,24,1,y,2,4
55,26,1,y,3,4
55,35,1,y,4,4
55,38,-1,y,3,4
55,39,-1,y,2,4
55,41,1,y,3,4
55,44,1,y,4,4
55,45,-1,b,4,3
55,46,-1,y,3,3
55,46,-1,y,2,3
55,48,-1,y,1,3
55,49,1,b,1,4
56,6,1,y,2,4
56,12,1,y,3,4
56,13,-1,y,2,4
56,15,1,y,3,4
56,25,-1,y,2,4
56,30,1,y,3,4
56,33,-1,y,2,4
56,36,1,y,3,4
56,38,-1,y,2,4
56,41,1,y,3,4
57,6,-1,b,3,3
57,6,-1,y,2,3
57,13,1,b,2,4
57,15,1,y,3,4
57,18,1,y,4,4
57,20,1,y,5,4
57,21,-1,y,4,4
57,23,-1,y,3,4
57,24,1,y,4,4
57,24,1,y,5,4
57,30,-1,b,5,3
57,32,1,b,5,4
57,41,-1,b,5,3
57,41,-1,y,4,3
57,42,1,b,4,4
57,43,1,y,5,4
57,45,-1,y,4,4
57,45,-1,b,4,3
57,46,-1,y,3,3
57,46,1,y,4,3
57,51,-1,y,3,3
57,52,1,y,4,3
57,53,-1,y,3,3
57,55,1,y,4,3
57,55,1,y,5,3
57,57,-1,y,4,3
57,59,1,y,5,3
58,0,-1,y,4,3
58,0,-1,y,3,3
58,1,1,y,4,3
58,2,-1,y,3,3
58,2,1,y,4,3
58,3,-1,y,3,3
58,6,1,y,4,3
58,7,-1,y,3,3
58,13,1,y,4,3
58,14,1,y,5,3
58,16,-1,y,4,3
58,16,1,y,5,3
58,17,-1,y,4,3
58,18,1,y,5,3
58,19,-1,y,4,3
58,19,-1,y,3,3
58,20,-1,y,2,3
58,22,1,y,3,3
58,22,1,y,4,3
58,22,-1,y,3,3
58,24,1,y,4,3
58,26,-1,y,3,3
58,27,1,y,4,3
58,28,-1,y,3,3
58,30,-1,y,2,3
58,32,1,y,3,3
58,34,1,b,3,4
58,35,1,b,4,4
58,41,-1,y,3,4
58,46,1,y,4,4
58,47,-1,y,3,4
58,49,1,y,4,4
58,49,1,y,5,4
58,50,-1,y,4,4
58,53,-1,y,3,4
58,55,1,y,4,4
58,56,-1,y,3,4
58,56,1,y,4,4
58,59,-1,b,4,3
59,0,-1,y,3,3
59,0,-1,y,2,3
59,2,-1,y,1,3
59,3,1,y,2,3
59,3,1,y,3,3
59,8,-1,y,2,3
59,10,1,y,3,3
59,12,1,y,4,3
59,15,1,y,5,3
59,22,-1,y,4,3
59,24,-1,y,3,3
59,25,1,y,4,3
59,25,-1,y,3,3
59,26,1,y,4,3
59,26,-1,y,3,3
59,28,1,y,4,3
59,28,-1,y,3,3
59,29,1,y,4,3
59,30,1,y,5,3
59,30,-1,y,4,3
59,30,1,y,5,3
59,32,-1,y,4,3
59,34,1,y,5,3
59,36,-1,y,4,3
59,39,-1,y,3,3
59,39,1,y,4,3
59,41,-1,y,3,3
59,42,1,y,4,3
59,42,-1,y,3,3
59,42,1,y,4,3
59,46,-1,y,3,3
59,46,-1,y,2,3
59,47,-1,y,1,3
59,49,1,y,2,3
59,54,1,y,3,3
59,56,1,y,4,3
59,57,1,y,5,3
59,58,-1,y,4,3
59,58,1,y,5,3
59,59,-1,y,4,3
59,59,-1,y,3,3
