minutes,seconds,join_leave,colour,nmales,nfemales
0,0,0,0,1,3
0,0,-1,b,0,3
0,1,1,b,1,3
0,3,-1,b,0,3
0,4,1,b,1,3
0,4,-1,b,0,3
0,5,1,b,1,3
0,8,-1,b,0,3
0,9,1,y,0,4
0,12,1,b,1,4
0,13,-1,y,1,3
0,13,1,y,1,4
0,26,-1,y,1,3
0,26,-1,b,0,3
0,30,1,y,0,4
0,36,1,b,1,4
0,38,-1,y,1,3
0,38,1,y,1,4
0,41,-1,b,0,4
1,21,-1,y,0,3
1,26,1,b,1,3
1,27,1,y,1,4
1,36,1,b,2,4
1,42,1,b,3,4
1,43,-1,y,3,3
1,43,-1,b,2,3
1,48,-1,b,1,3
1,48,1,b,2,3
1,49,1,y,2,4
1,51,1,b,3,4
1,52,-1,y,3,3
1,52,-1,b,2,3
1,52,-1,b,1,3
1,52,-1,b,0,3
1,53,1,b,1,3
1,54,1,b,2,3
1,56,-1,b,1,3
1,56,1,y,1,4
1,56,1,b,2,4
1,57,1,b,3,4
1,58,-1,b,2,4
1,59,1,b,3,4
1,59,1,y,3,5
2,2,-1,y,3,4
2,2,-1,b,2,4
2,3,-1,b,1,4
2,4,1,b,2,4
2,6,-1,b,1,4
2,9,1,b,2,4
2,10,1,y,2,5
2,19,-1,y,2,4
2,19,-1,b,1,4
2,19,-1,b,0,4
2,20,1,y,0,5
2,20,1,b,1,5
2,20,1,b,2,5
2,21,-1,y,2,4
2,21,-1,b,1,4
2,22,-1,b,0,4
2,25,1,b,1,4
2,30,-1,b,0,4
2,31,1,b,1,4
2,33,-1,b,0,4
2,34,1,b,1,4
2,37,-1,b,0,4
2,38,1,b,1,4
2,40,-1,b,0,4
2,41,1,b,1,4
2,44,-1,b,0,4
2,44,1,b,1,4
2,45,-1,b,0,4
2,59,1,b,1,4
3,2,-1,b,0,4
3,5,1,b,1,4
3,10,-1,b,0,4
3,11,1,b,1,4
3,13,-1,b,0,4
3,13,1,b,1,4
3,34,1,b,2,4
3,58,-1,y,2,3
3,59,-1,b,1,3
4,0,-1,b,0,3
4,5,1,b,1,3
4,7,-1,b,0,3
4,8,1,b,1,3
4,9,-1,b,0,3
4,10,1,b,1,3
4,10,1,b,2,3
4,13,-1,b,1,3
4,27,-1,b,0,3
4,28,1,b,1,3
4,33,1,b,2,3
4,36,-1,b,1,3
4,36,-1,b,0,3
4,37,1,b,1,3
4,37,1,b,2,3
4,40,-1,b,1,3
4,42,1,b,2,3
4,43,-1,b,1,3
4,44,1,y,1,4
4,45,-1,b,0,4
4,46,1,b,1,4
4,48,-1,b,0,4
4,58,1,b,1,4
4,59,1,b,2,4
5,2,1,b,3,4
5,9,-1,b,2,4
5,10,1,b,3,4
5,12,-1,b,2,4
5,12,-1,y,2,3
5,13,1,y,2,4
5,20,1,b,3,4
5,26,1,y,3,5
5,29,-1,y,3,4
5,29,-1,b,2,4
5,29,-1,b,1,4
5,29,-1,b,0,4
5,31,1,y,0,5
5,31,1,b,1,5
5,32,1,b,2,5
5,33,-1,y,2,4
5,33,-1,b,1,4
5,38,1,b,2,4
5,42,1,y,2,5
5,42,1,b,3,5
5,42,-1,y,3,4
5,43,-1,b,2,4
5,45,1,b,3,4
5,49,-1,b,2,4
5,50,1,b,3,4
5,52,-1,y,3,3
5,52,-1,b,2,3
5,52,-1,b,1,3
5,52,-1,b,0,3
5,52,1,b,1,3
5,53,1,y,1,4
5,55,1,b,2,4
5,55,-1,y,2,3
5,55,-1,b,1,3
5,58,-1,b,0,3
5,59,1,b,1,3
6,1,1,b,2,3
6,2,-1,b,1,3
6,2,1,b,2,3
6,3,-1,b,1,3
6,5,1,y,1,4
6,6,-1,b,0,4
6,7,1,b,1,4
6,8,1,b,2,4
6,22,1,y,2,5
6,23,1,b,3,5
6,25,-1,b,2,5
6,26,1,b,3,5
6,42,-1,y,3,4
6,42,-1,y,3,3
6,42,-1,b,2,3
6,42,-1,b,1,3
6,43,-1,b,0,3
6,44,1,y,0,4
6,44,1,b,1,4
6,45,1,b,2,4
6,46,1,y,2,5
6,57,-1,y,2,4
6,57,-1,b,1,4
6,57,-1,b,0,4
6,59,1,y,0,5
7,0,-1,y,0,4
7,0,1,b,1,4
7,1,1,y,1,5
7,1,-1,y,1,4
7,1,-1,b,0,4
7,2,1,y,0,5
7,2,1,b,1,5
7,2,-1,y,1,4
7,2,-1,b,0,4
7,2,1,y,0,5
7,3,1,b,1,5
7,5,-1,b,0,5
7,5,1,b,1,5
7,6,-1,b,0,5
7,7,1,b,1,5
7,8,-1,b,0,5
7,8,1,b,1,5
7,10,-1,b,0,5
7,12,1,b,1,5
7,16,1,b,2,5
7,20,-1,b,1,5
7,21,1,b,2,5
7,22,-1,b,1,5
7,23,1,b,2,5
7,24,-1,y,2,4
7,24,-1,b,1,4
7,24,1,y,1,5
7,24,1,b,2,5
7,25,-1,b,1,5
7,27,-1,y,1,4
7,27,-1,b,0,4
7,27,1,y,0,5
7,27,1,b,1,5
8,2,1,b,2,5
8,5,-1,y,2,4
8,5,-1,b,1,4
8,5,-1,b,0,4
8,12,1,y,0,5
8,12,1,b,1,5
8,12,1,b,2,5
8,13,1,b,3,5
8,13,-1,y,3,4
8,17,1,y,3,5
8,22,-1,y,3,4
8,22,-1,b,2,4
8,24,1,b,3,4
8,25,-1,b,2,4
8,25,1,b,3,4
8,27,-1,b,2,4
8,28,1,b,3,4
8,30,-1,b,2,4
8,31,1,b,3,4
8,34,-1,b,2,4
8,35,1,b,3,4
8,36,-1,b,2,4
8,36,1,b,3,4
8,38,-1,b,2,4
8,38,-1,b,1,4
8,39,1,b,2,4
8,39,1,b,3,4
8,40,-1,b,2,4
8,41,1,b,3,4
8,44,-1,b,2,4
8,44,1,b,3,4
8,47,1,b,4,4
8,47,-1,b,3,4
8,51,-1,b,2,4
8,52,1,b,3,4
8,55,-1,b,2,4
8,57,1,b,3,4
8,58,-1,y,3,3
8,58,-1,b,2,3
8,58,-1,b,1,3
8,59,1,b,2,3
8,59,1,b,3,3
8,59,-1,b,2,3
9,0,-1,b,1,3
9,1,1,b,2,3
9,1,1,y,2,4
9,3,-1,b,1,4
9,4,1,b,2,4
9,4,-1,b,1,4
9,4,1,b,2,4
9,4,1,b,3,4
9,5,-1,b,2,4
9,6,1,b,3,4
9,7,-1,y,3,3
9,8,-1,b,2,3
9,8,-1,b,1,3
9,9,-1,b,0,3
9,10,1,b,1,3
9,11,-1,b,0,3
9,12,1,y,0,4
9,24,1,b,1,4
9,27,1,b,2,4
9,29,-1,b,1,4
9,29,-1,b,0,4
9,30,1,b,1,4
9,32,1,b,2,4
9,32,-1,b,1,4
9,35,1,b,2,4
9,39,-1,b,1,4
9,40,1,b,2,4
9,41,-1,b,1,4
9,42,1,b,2,4
9,44,1,b,3,4
9,44,-1,y,3,3
9,44,-1,b,2,3
9,44,-1,b,1,3
9,44,1,b,2,3
9,44,1,b,3,3
9,45,-1,y,3,2
9,46,-1,b,2,2
9,46,-1,b,1,2
9,47,-1,b,0,2
9,48,1,b,1,2
9,48,1,b,2,2
9,50,1,b,3,2
9,50,-1,b,2,2
9,51,-1,b,1,2
9,52,1,b,2,2
9,53,-1,b,1,2
9,54,1,b,2,2
9,56,-1,b,1,2
9,56,-1,b,0,2
9,56,1,b,1,2
9,56,1,b,2,2
9,57,1,y,2,3
9,59,-1,b,1,3
9,59,1,b,2,3
10,0,-1,b,1,3
10,0,-1,b,0,3
10,3,1,b,1,3
10,4,1,y,1,4
10,5,-1,b,0,4
10,6,1,b,1,4
10,6,1,b,2,4
10,7,-1,b,1,4
10,7,1,b,2,4
10,8,1,b,3,4
10,8,-1,b,2,4
10,9,-1,b,1,4
10,10,1,b,2,4
10,10,-1,b,1,4
10,10,1,b,2,4
10,12,-1,b,1,4
10,13,1,b,2,4
10,15,-1,b,1,4
10,25,1,b,2,4
10,26,-1,b,1,4
10,27,-1,y,1,3
10,27,1,b,2,3
10,27,-1,b,1,3
10,28,1,y,1,4
10,29,-1,y,1,3
10,29,-1,b,0,3
10,31,1,y,0,4
10,33,1,b,1,4
10,39,-1,b,0,4
10,52,1,b,1,4
10,58,-1,b,0,4
11,3,1,b,0,5
11,10,1,b,1,5
11,17,-1,y,1,4
11,27,1,b,2,4
11,29,1,b,3,4
11,35,-1,b,2,4
11,36,1,b,3,4
11,40,-1,y,3,3
11,40,-1,b,2,3
11,40,-1,b,1,3
11,44,1,y,1,4
11,50,-1,y,1,3
11,51,1,y,1,4
11,52,-1,y,1,3
11,52,1,b,2,3
11,53,-1,b,1,3
11,53,1,b,2,3
11,53,-1,b,1,3
11,55,1,y,1,4
11,56,1,b,2,4
11,59,1,b,3,4
11,59,1,b,4,4
11,59,-1,y,4,3
11,59,-1,b,3,3
12,0,-1,b,2,3
12,1,-1,b,1,3
12,1,1,b,2,3
12,2,-1,b,1,3
12,3,1,b,2,3
12,4,1,b,3,3
12,8,1,y,3,4
12,11,-1,b,2,4
12,11,-1,b,1,4
12,12,1,b,2,4
12,18,1,b,3,4
12,19,1,b,4,4
12,21,-1,b,3,4
12,21,-1,b,2,4
12,22,1,b,3,4
12,25,-1,y,3,3
12,25,-1,b,2,3
12,25,1,y,2,4
12,25,1,b,3,4
12,35,-1,b,2,4
12,36,1,b,3,4
12,39,-1,y,3,3
12,40,1,b,2,3
12,42,-1,y,2,2
12,42,-1,b,1,2
12,43,-1,b,0,2
12,45,1,b,1,2
12,47,1,b,2,2
12,47,1,y,2,3
12,47,-1,b,1,3
12,48,1,b,2,3
12,48,1,b,3,3
12,51,-1,b,2,3
12,51,1,b,3,3
12,52,-1,b,2,3
12,52,-1,b,1,3
12,53,1,b,2,3
12,54,-1,b,1,3
12,55,1,b,2,3
12,56,-1,y,2,2
12,56,-1,b,1,2
13,0,-1,b,0,2
13,1,1,b,1,2
13,2,-1,b,0,2
13,3,1,y,0,3
13,4,-1,y,0,2
13,4,1,b,1,2
13,5,1,y,1,3
13,6,1,b,2,3
13,6,1,b,3,3
13,7,-1,b,2,3
13,7,1,b,3,3
13,7,-1,b,2,3
13,8,-1,y,2,2
13,8,-1,b,1,2
13,8,1,y,1,3
13,9,1,b,2,3
13,9,1,b,3,3
13,10,-1,b,2,3
13,10,1,b,3,3
13,11,-1,y,3,2
13,11,-1,b,2,2
13,11,-1,b,1,2
13,12,1,y,1,3
13,12,1,b,2,3
13,13,1,y,2,4
13,13,-1,b,1,4
13,14,1,b,2,4
13,16,-1,b,1,4
13,17,1,b,2,4
13,18,-1,b,1,4
13,19,1,b,2,4
13,20,-1,y,2,3
13,26,-1,y,2,2
13,26,1,y,2,3
13,27,-1,b,1,3
13,27,-1,y,1,2
13,28,1,y,1,3
13,29,-1,b,0,3
13,33,1,b,1,3
13,36,1,y,1,4
13,38,1,b,2,4
14,0,-1,y,2,3
14,0,-1,b,1,3
14,1,-1,b,0,3
14,1,1,b,1,3
14,10,-1,y,1,2
14,11,-1,b,0,2
14,11,1,y,0,3
14,13,1,b,1,3
14,13,-1,b,0,3
14,15,1,b,1,3
14,16,-1,b,0,3
14,19,1,b,1,3
14,23,1,b,2,3
14,24,-1,b,1,3
14,31,1,b,2,3
14,33,1,b,3,3
14,34,-1,y,3,2
14,36,-1,b,2,2
14,36,1,y,3,2
14,40,1,b,3,3
14,44,-1,b,2,3
14,45,-1,b,1,3
14,46,1,b,2,3
14,47,-1,b,1,3
14,47,1,b,2,3
14,48,-1,y,2,2
14,49,-1,b,1,2
14,52,1,b,2,2
14,55,-1,b,1,2
14,56,1,b,2,2
14,58,1,b,3,2
14,58,-1,b,2,2
15,0,-1,y,2,1
15,0,1,b,3,1
15,0,-1,b,2,1
15,1,1,y,2,2
15,1,-1,b,1,2
15,2,-1,b,0,2
15,3,1,b,1,2
15,20,1,b,2,2
15,29,-1,y,2,1
15,29,-1,b,1,1
15,29,-1,b,0,1
15,33,1,b,1,1
15,33,1,y,1,2
15,35,-1,y,1,1
15,37,-1,b,0,1
15,52,1,b,1,1
15,57,-1,b,0,1
15,59,1,b,1,1
16,3,1,b,2,1
16,7,-1,b,1,1
16,7,-1,b,0,1
16,8,1,b,1,1
16,9,1,b,2,1
16,10,-1,b,1,1
16,11,1,b,2,1
16,12,-1,b,1,1
16,12,-1,b,0,1
16,13,1,b,1,1
16,16,-1,b,0,1
16,18,1,b,1,1
16,21,-1,b,0,1
16,22,1,b,1,1
16,29,-1,b,0,1
16,37,1,b,1,1
16,39,1,y,1,2
16,41,-1,b,0,2
16,41,1,b,1,2
16,42,-1,b,0,2
16,46,1,b,1,2
16,46,-1,b,0,2
16,50,1,b,1,2
16,55,-1,b,0,2
16,55,1,b,1,2
16,55,1,b,2,2
16,59,1,b,3,2
16,59,-1,b,2,2
17,0,1,b,3,2
17,2,-1,b,2,2
17,2,1,b,3,2
17,2,-1,b,2,2
17,3,1,b,3,2
17,4,-1,b,2,2
17,5,1,b,3,2
17,6,-1,b,2,2
17,7,1,b,3,2
17,7,-1,b,2,2
17,7,-1,b,1,2
17,8,1,b,2,2
17,10,-1,b,1,2
17,11,1,b,2,2
17,13,-1,b,1,2
17,14,-1,b,0,2
17,15,1,b,1,2
17,15,1,b,2,2
17,18,-1,b,1,2
17,19,-1,b,0,2
17,23,1,b,1,2
17,24,-1,b,0,2
17,42,1,b,1,2
17,43,1,b,2,2
17,44,-1,b,1,2
17,45,1,b,2,2
17,47,-1,b,1,2
17,50,-1,b,0,2
17,51,1,b,1,2
17,54,1,b,2,2
17,54,-1,b,1,2
17,58,-1,b,0,2
18,8,1,y,0,3
18,14,1,b,1,3
18,15,1,b,2,3
18,17,-1,y,2,2
18,18,-1,b,1,2
18,18,1,y,1,3
18,18,-1,b,0,3
18,18,1,b,1,3
18,19,-1,y,1,2
18,19,-1,b,0,2
18,20,1,b,1,2
18,20,1,y,1,3
18,20,1,b,2,3
18,20,1,b,3,3
18,20,1,b,4,3
18,23,1,y,4,4
18,25,-1,b,3,4
18,26,1,b,4,4
18,29,-1,b,3,4
18,30,-1,b,2,4
18,30,1,b,3,4
18,32,-1,b,2,4
18,33,1,b,3,4
18,42,-1,y,3,3
18,43,-1,b,2,3
18,44,1,y,2,4
18,45,1,b,3,4
18,48,-1,y,3,3
18,49,-1,b,2,3
18,51,1,b,3,3
18,53,-1,y,3,2
18,54,-1,b,2,2
18,54,-1,b,1,2
18,55,-1,b,0,2
18,56,1,b,1,2
18,57,-1,b,0,2
18,58,1,b,1,2
18,59,-1,b,0,2
18,59,1,b,1,2
19,0,1,b,2,2
19,0,1,y,2,3
19,0,1,b,3,3
19,2,-1,y,3,2
19,2,-1,b,2,2
19,3,1,y,2,3
19,3,-1,b,1,3
19,6,-1,b,0,3
19,7,1,b,1,3
19,8,-1,b,0,3
19,9,1,b,1,3
19,11,1,b,2,3
19,13,1,b,3,3
19,14,-1,b,2,3
19,14,1,b,3,3
19,15,-1,b,2,3
19,16,1,b,3,3
19,16,-1,b,2,3
19,16,-1,b,1,3
19,17,1,b,2,3
19,19,-1,b,1,3
19,21,1,b,2,3
19,24,-1,b,1,3
19,30,1,b,2,3
19,31,1,b,3,3
19,32,1,b,4,3
19,32,-1,y,4,2
19,32,-1,b,3,2
19,32,-1,b,2,2
19,34,1,y,2,3
19,36,-1,b,1,3
19,38,1,b,2,3
19,41,-1,y,2,2
19,41,1,b,3,2
19,42,-1,b,2,2
19,42,-1,b,1,2
19,45,-1,b,0,2
19,46,1,b,1,2
19,48,-1,b,0,1
19,48,1,b,1,2
19,50,-1,b,0,2
19,50,1,y,0,3
19,54,1,b,1,3
19,56,-1,b,0,3
19,57,1,b,1,3
19,57,1,b,2,3
19,57,-1,b,1,3
20,9,1,b,2,3
20,26,-1,b,1,3
20,26,1,b,2,3
20,27,-1,b,1,3
20,27,1,b,2,3
20,28,-1,b,1,3
20,29,1,b,2,3
20,29,-1,b,1,3
20,30,-1,b,0,3
20,31,1,b,1,3
20,32,1,b,2,3
20,33,-1,b,1,3
20,36,-1,b,0,3
20,37,1,b,1,3
20,39,1,b,2,3
20,40,-1,b,1,3
20,42,-1,b,0,3
20,42,-1,b,1,3
20,43,1,b,2,3
20,44,-1,b,1,3
20,52,1,b,2,3
20,56,1,b,3,3
21,0,-1,y,3,2
21,1,-1,b,2,2
21,2,-1,b,1,2
21,2,-1,b,0,2
21,2,1,b,1,2
21,5,-1,b,0,2
21,5,1,b,1,2
21,6,-1,b,0,2
21,7,1,b,1,2
21,8,-1,b,0,2
21,8,1,b,1,2
21,9,1,y,1,3
21,11,1,b,2,3
21,13,-1,b,1,3
21,14,1,b,2,3
21,17,-1,b,1,3
21,17,1,b,2,3
21,20,-1,y,2,2
21,20,1,y,2,3
21,21,-1,b,1,3
21,21,-1,b,0,3
21,24,1,b,1,3
21,26,1,b,2,3
21,32,-1,y,2,2
21,32,-1,b,1,2
21,32,1,y,1,3
21,32,-1,y,1,2
21,33,1,y,1,3
21,34,1,b,2,3
21,38,1,y,2,4
21,54,-1,y,2,3
21,54,-1,b,1,3
21,54,-1,b,0,3
21,59,1,b,1,3
22,0,-1,b,0,3
22,1,1,y,0,4
22,2,1,b,1,4
22,3,1,b,2,4
22,9,-1,b,1,4
22,10,1,b,2,4
22,16,1,b,3,4
22,17,-1,b,2,4
22,22,1,b,3,4
22,24,-1,b,2,4
22,36,-1,y,2,3
22,37,-1,b,1,3
22,38,1,b,2,3
22,42,-1,b,1,3
22,43,1,b,2,3
22,45,-1,b,1,3
22,46,1,b,2,3
22,47,1,y,2,4
22,48,-1,b,1,4
22,48,1,b,2,4
22,49,1,b,3,4
22,53,-1,b,2,4
23,0,-1,y,2,3
23,0,-1,b,1,3
23,0,1,y,1,4
23,0,1,b,2,4
23,10,-1,b,2,3
23,11,1,y,2,4
23,18,-1,y,2,3
23,20,-1,b,1,3
23,31,1,b,2,3
23,36,-1,b,1,3
23,37,1,b,2,3
23,38,-1,b,1,3
23,45,1,y,1,4
24,2,1,y,1,5
24,3,1,b,2,5
24,9,1,b,3,5
24,9,-1,b,2,5
24,11,1,b,3,5
24,17,-1,b,2,5
24,20,1,b,3,5
24,24,-1,b,2,5
24,25,1,b,3,5
24,25,1,b,4,5
24,26,-1,y,4,4
24,26,-1,b,3,4
24,27,-1,b,2,4
24,27,-1,b,1,4
24,29,1,b,2,4
24,32,-1,b,1,4
24,34,1,b,2,4
24,46,1,y,2,5
24,49,1,b,3,5
24,56,-1,y,3,4
24,56,-1,b,2,4
24,57,1,b,3,4
25,3,-1,b,2,4
25,5,1,b,3,4
25,25,-1,b,2,4
25,27,1,b,3,4
25,32,-1,b,2,4
25,33,1,b,3,4
25,34,-1,b,2,4
25,34,1,b,3,4
25,39,-1,b,2,4
25,39,-1,b,1,4
25,42,1,b,2,4
26,46,1,b,3,4
27,0,-1,b,2,4
27,1,-1,b,1,4
27,1,1,b,2,4
27,2,1,b,3,4
27,16,-1,b,2,4
27,20,-1,b,1,4
28,6,1,b,2,4
28,7,-1,b,1,4
28,8,1,b,2,4
28,42,1,b,3,4
29,8,-1,y,3,3
29,9,-1,b,2,3
29,9,-1,b,1,3
29,9,1,b,2,3
29,11,-1,b,1,3
29,11,1,b,2,3
29,14,1,y,2,4
29,38,1,b,3,4
29,53,-1,b,2,4
29,54,1,b,3,4
30,1,1,b,4,4
30,4,-1,b,3,4
30,4,-1,y,3,3
30,5,1,b,4,3
30,14,1,y,4,4
30,23,-1,y,4,3
30,23,-1,y,4,2
30,24,-1,b,3,2
30,24,1,y,3,3
30,24,1,b,4,3
30,25,-1,b,3,3
30,25,1,b,4,3
30,25,-1,y,4,2
30,26,-1,b,3,2
30,26,-1,b,2,2
30,27,-1,b,1,2
30,28,1,b,2,2
30,29,1,y,2,3
30,32,1,y,2,4
30,51,1,b,3,4
30,55,-1,y,3,3
30,55,1,y,3,4
30,55,-1,b,2,4
30,56,-1,b,1,4
30,56,-1,y,1,3
30,56,1,b,2,3
30,57,1,b,3,3
30,57,1,y,3,4
30,58,1,b,4,4
31,4,-1,y,4,3
31,4,1,y,4,4
31,4,-1,y,4,3
31,4,-1,b,3,3
31,4,1,b,4,3
31,5,-1,y,4,2
31,6,-1,b,3,2
31,6,-1,b,2,2
31,6,1,y,2,3
31,6,-1,y,2,2
31,6,1,y,2,3
31,6,1,b,3,3
31,6,1,b,4,3
31,6,1,y,4,4
31,6,-1,y,4,3
31,7,-1,b,3,3
31,9,-1,b,2,3
31,9,1,b,3,3
31,10,1,y,3,4
31,11,1,b,4,4
31,11,-1,b,3,4
31,12,-1,y,3,3
31,12,1,b,4,3
31,15,-1,y,4,2
31,15,-1,b,3,2
31,15,1,y,3,3
31,18,-1,y,3,2
31,18,-1,b,2,2
31,20,-1,b,1,2
31,24,1,y,1,3
31,25,1,b,2,3
31,27,1,b,3,3
31,39,-1,b,2,3
31,39,1,b,3,3
31,41,1,b,4,3
31,46,-1,b,3,3
31,47,1,b,4,3
31,56,-1,y,4,2
31,56,-1,b,3,2
31,56,-1,b,2,2
31,56,-1,b,1,2
31,57,1,y,1,3
32,1,1,b,2,3
32,1,1,b,3,3
32,2,-1,y,3,2
32,2,-1,b,2,2
32,3,1,y,2,3
32,3,1,b,3,3
32,6,-1,b,2,3
32,6,1,b,3,3
32,8,1,y,3,4
32,16,-1,y,3,3
32,17,1,y,3,4
32,18,-1,y,3,3
32,19,-1,b,2,3
32,25,1,b,3,3
32,26,1,y,3,4
32,27,-1,y,3,3
32,28,-1,b,2,3
32,29,1,b,3,3
32,29,-1,b,2,3
32,30,1,b,3,3
32,30,1,b,4,3
32,30,-1,b,3,3
32,31,1,b,4,3
32,32,-1,b,3,3
32,33,1,b,4,3
32,33,-1,b,3,3
32,33,1,b,4,3
32,34,-1,b,3,3
32,34,-1,b,2,3
32,34,-1,b,1,3
32,34,1,b,2,3
32,35,1,b,3,3
32,35,1,b,4,3
32,37,-1,y,4,2
32,38,-1,b,3,2
32,38,-1,b,2,2
32,38,-1,b,1,2
32,39,1,b,2,2
32,40,1,b,3,2
32,40,-1,b,2,2
32,41,1,b,3,2
32,41,-1,b,2,2
32,42,1,y,2,3
32,42,1,b,3,3
32,47,1,b,4,3
32,49,-1,b,3,3
32,49,-1,b,2,3
32,50,1,b,3,3
32,50,1,b,4,3
32,52,-1,b,3,3
32,52,-1,y,3,2
32,52,1,y,3,3
32,56,-1,b,2,3
32,57,1,b,3,3
33,0,-1,b,2,3
33,6,-1,b,1,3
33,7,1,b,2,3
33,9,-1,y,2,2
33,10,-1,b,1,2
33,10,1,y,1,3
33,11,1,b,2,3
33,15,-1,b,1,3
33,16,1,b,2,3
33,17,-1,b,1,3
33,18,1,b,2,3
33,18,1,b,3,3
33,18,-1,b,2,3
33,18,1,b,3,3
33,22,-1,b,2,3
33,23,1,b,3,3
33,24,-1,b,2,3
33,24,-1,b,1,3
33,25,1,b,2,3
33,25,1,b,3,3
33,27,-1,b,2,3
33,28,1,b,3,3
33,28,1,b,4,3
33,30,-1,b,3,3
33,30,-1,b,2,3
33,31,1,b,3,3
33,32,1,b,4,3
33,32,-1,b,3,3
33,33,1,b,4,3
33,33,-1,b,3,3
33,34,1,b,4,3
33,37,-1,b,3,3
33,37,1,b,4,3
33,38,-1,b,3,3
33,38,1,b,4,3
33,38,-1,b,3,3
33,40,1,b,4,3
33,40,-1,b,3,3
33,46,-1,b,2,3
33,47,1,b,3,3
33,47,-1,y,3,2
33,49,-1,b,2,2
33,50,1,b,3,2
33,50,1,y,3,3
33,55,-1,b,2,3
33,56,1,b,3,3
34,2,1,b,4,3
34,2,-1,b,3,3
34,3,-1,b,2,3
34,3,1,b,3,3
34,4,-1,y,3,2
34,5,1,b,4,2
34,6,1,y,4,3
34,7,-1,b,3,3
34,9,-1,b,2,3
34,10,-1,b,1,3
34,10,1,b,2,3
34,11,1,b,3,3
34,11,-1,b,2,3
34,12,-1,y,2,2
34,13,-1,b,1,2
34,14,1,b,2,2
34,16,1,y,2,3
34,18,-1,b,1,3
34,19,1,b,2,3
34,21,-1,b,1,3
34,23,1,b,2,3
34,34,1,b,3,3
34,37,1,b,4,3
34,44,-1,b,3,3
34,47,1,b,4,3
34,48,-1,y,4,2
34,50,-1,b,3,2
34,50,1,y,3,3
34,50,-1,b,2,3
34,50,-1,b,1,3
34,51,1,b,2,3
34,52,1,b,3,3
34,53,-1,y,3,2
34,53,-1,b,2,2
34,54,1,y,2,3
34,56,-1,b,1,3
34,57,1,b,2,3
34,57,1,b,3,3
35,0,-1,b,2,3
35,1,-1,b,1,3
35,1,1,b,2,3
35,3,1,b,3,3
35,3,1,b,4,3
35,8,-1,b,3,3
35,10,-1,y,3,2
35,10,-1,b,2,2
35,17,-1,b,1,2
35,17,1,b,2,2
35,24,-1,b,1,2
35,25,1,b,2,2
35,26,-1,b,1,2
35,31,1,y,1,3
35,38,-1,y,1,2
35,39,1,y,2,3
35,40,-1,y,1,3
35,41,1,y,1,3
35,45,1,y,1,4
36,18,1,b,2,4
36,21,1,b,3,4
36,22,1,b,4,4
36,27,-1,b,3,4
36,28,1,b,4,4
36,29,-1,y,4,3
36,29,-1,b,3,3
36,30,1,b,4,3
36,30,-1,b,3,3
36,30,-1,b,2,3
36,31,1,b,3,3
36,31,-1,b,2,3
36,36,1,b,3,3
36,41,-1,b,2,3
36,43,1,b,3,3
36,43,1,b,4,3
36,45,-1,b,3,3
36,46,-1,y,3,2
36,47,-1,b,2,2
36,47,-1,b,1,2
36,47,1,b,2,2
36,48,-1,b,1,2
36,48,1,b,2,2
36,54,-1,b,1,2
37,3,1,b,2,2
37,7,-1,b,1,2
37,13,1,b,2,2
37,18,-1,b,1,2
37,18,1,b,2,2
37,23,-1,b,1,2
37,36,1,b,2,2
37,36,1,b,3,2
37,41,-1,b,2,2
37,42,-1,b,1,2
37,43,1,b,2,2
37,44,1,b,3,2
37,47,-1,b,2,2
37,47,-1,b,1,2
37,50,1,b,2,2
37,58,-1,b,1,2
38,2,1,b,2,2
38,8,-1,b,1,2
38,23,1,b,2,2
38,30,1,b,3,2
38,32,-1,b,2,2
38,34,1,b,3,2
38,41,-1,b,2,2
38,47,-1,b,1,2
38,47,1,b,2,2
38,50,1,b,3,2
38,56,-1,b,2,2
38,58,-1,b,1,2
39,36,1,b,2,2
39,42,1,b,3,2
39,46,-1,b,2,2
39,47,-1,b,1,2
39,47,1,b,2,2
39,48,1,b,3,2
39,48,-1,b,2,2
39,49,1,b,3,2
39,51,-1,b,2,2
39,51,-1,b,1,2
39,52,1,b,2,2
40,0,-1,b,1,2
40,1,1,b,2,2
40,16,-1,b,1,2
40,17,1,b,2,2
40,23,-1,b,1,2
40,26,1,b,2,2
40,33,-1,b,1,2
41,29,1,b,2,2
41,32,-1,b,1,2
41,33,1,b,2,2
41,36,-1,b,1,2
41,38,1,b,2,2
41,43,-1,b,1,2
42,19,1,b,2,2
42,34,-1,b,1,2
42,34,1,b,2,2
42,43,1,b,3,2
42,47,-1,b,2,2
42,59,-1,b,1,2
43,3,1,b,2,2
43,3,1,b,3,2
43,5,-1,b,2,2
43,15,-1,b,1,2
43,17,1,b,2,2
43,28,-1,b,1,2
43,29,1,b,2,2
43,44,-1,b,1,2
43,44,1,b,2,2
43,47,1,b,3,2
43,52,1,y,3,3
43,53,-1,b,2,3
43,53,-1,b,1,3
43,54,1,b,2,3
43,54,1,b,3,3
43,55,-1,b,2,3
43,55,-1,b,1,3
43,55,1,b,2,3
43,56,1,b,3,3
43,56,-1,b,2,3
43,57,-1,b,1,3
43,57,1,b,2,3
43,57,1,b,3,3
43,59,-1,b,2,3
44,2,-1,b,1,3
44,3,1,b,2,3
44,7,1,b,3,3
44,8,-1,b,2,3
44,9,-1,b,1,3
44,11,1,b,2,3
44,12,-1,y,2,2
44,18,1,b,3,2
44,24,1,y,3,3
44,38,-1,b,2,3
44,41,1,b,3,3
44,41,-1,b,2,3
44,41,-1,b,1,3
44,45,1,b,2,3
44,47,1,b,3,3
44,49,-1,y,3,2
44,50,-1,b,1,2
44,50,-1,b,0,2
44,51,1,y,1,3
44,57,1,b,2,3
45,5,-1,b,1,3
45,23,1,b,2,3
45,45,-1,b,1,3
45,46,1,b,2,3
45,59,-1,y,2,2
46,0,-1,b,1,2
46,2,1,b,2,2
46,33,1,y,2,3
46,34,1,b,3,3
46,37,-1,b,2,3
46,39,1,b,3,3
46,45,-1,b,2,3
46,46,-1,b,1,3
46,47,1,b,2,3
46,48,1,b,3,3
46,51,-1,b,2,3
47,1,-1,b,1,3
47,2,1,b,2,3
47,13,-1,b,1,3
47,18,1,b,2,3
47,22,-1,b,1,3
47,23,1,b,2,3
48,17,-1,b,1,3
48,18,1,b,2,3
48,20,1,y,2,4
48,37,-1,y,2,3
48,37,-1,b,1,3
48,38,1,y,1,4
48,49,1,b,2,4
48,51,1,b,3,4
48,53,-1,b,2,4
48,53,1,b,3,4
49,6,1,y,3,5
49,7,-1,b,2,5
49,7,-1,y,2,4
49,7,-1,b,1,4
49,8,1,y,1,5
49,9,1,b,2,5
49,9,1,b,3,5
49,10,-1,y,3,4
49,10,-1,b,2,4
49,10,-1,b,1,4
49,11,-1,b,0,4
49,13,1,b,1,4
49,13,1,y,1,5
49,15,1,b,2,5
49,15,1,b,3,5
49,17,-1,b,2,5
49,18,-1,b,1,5
49,18,1,b,2,5
49,18,1,b,3,5
49,19,-1,y,3,4
49,20,-1,b,2,5
49,22,1,b,3,5
49,26,-1,b,2,5
49,27,1,b,3,5
49,31,-1,y,3,4
49,32,-1,b,2,4
49,33,-1,y,2,3
49,34,-1,b,1,3
49,35,1,b,2,3
49,36,-1,b,1,3
49,37,1,y,1,4
49,37,-1,b,0,4
49,38,1,b,1,4
49,38,1,y,1,5
49,38,-1,y,1,4
49,45,1,b,2,4
49,47,-1,y,2,3
49,48,-1,b,1,3
49,48,1,y,1,4
49,48,-1,b,0,4
49,48,1,b,1,4
49,48,1,b,2,4
49,49,-1,y,2,3
49,49,-1,b,1,3
49,49,-1,b,0,3
49,51,1,b,1,3
49,53,-1,b,0,3
49,54,1,b,1,3
49,57,1,b,2,3
50,1,-1,b,1,3
50,2,1,b,2,3
50,4,-1,b,1,3
50,4,-1,b,0,3
50,5,1,b,1,3
50,9,-1,b,0,3
50,10,1,b,1,3
50,17,-1,b,0,3
50,18,1,b,1,3
50,22,1,b,2,3
50,25,-1,b,1,3
50,27,1,b,2,3
50,27,-1,b,1,3
50,29,-1,b,0,3
50,30,1,b,1,3
50,39,-1,b,0,3
50,40,1,b,1,3
50,42,1,b,2,3
50,46,-1,b,1,3
50,47,1,b,2,3
50,55,-1,b,1,3
51,12,1,b,2,3
51,16,-1,b,1,3
51,16,-1,b,0,3
51,32,1,b,1,3
51,40,-1,y,1,2
51,41,-1,b,0,2
51,41,1,y,0,3
51,43,1,b,1,3
51,50,-1,b,0,3
51,53,1,b,1,3
51,59,-1,b,0,3
52,1,1,b,1,3
52,2,-1,b,0,3
52,4,1,b,1,3
52,5,-1,b,0,3
52,10,1,b,1,3
52,10,1,b,2,3
52,13,-1,b,1,3
52,14,-1,b,0,3
52,15,1,b,1,3
52,17,1,y,1,4
52,18,1,b,2,4
52,26,-1,y,2,3
52,26,-1,b,1,3
52,27,1,y,1,4
52,28,1,b,2,4
52,29,-1,b,1,4
52,29,-1,y,1,3
52,30,-1,b,0,3
52,30,1,y,0,4
52,30,1,b,1,4
52,30,-1,y,1,3
52,31,-1,b,0,3
52,33,1,b,1,3
52,35,-1,b,0,3
52,36,1,b,1,3
52,37,1,y,1,4
52,39,-1,b,0,4
52,40,1,b,1,4
52,44,1,b,2,4
52,53,-1,b,1,4
52,53,-1,b,0,4
52,54,1,b,1,4
52,55,1,b,2,4
52,56,-1,y,2,3
52,57,-1,b,1,3
52,58,1,b,2,3
52,58,-1,b,1,3
52,59,-1,b,0,3
53,1,1,b,0,4
53,4,1,b,1,4
53,13,-1,y,1,3
53,13,1,b,2,3
53,14,-1,b,1,3
53,19,-1,b,0,3
53,22,1,b,1,3
53,28,-1,b,0,3
53,34,1,b,1,3
53,39,-1,b,0,3
53,40,1,b,1,3
53,43,1,b,2,3
53,46,-1,b,1,3
53,47,1,b,2,3
53,47,-1,b,1,3
53,48,1,b,2,3
53,49,-1,b,1,3
53,49,-1,b,0,3
53,51,1,b,1,3
53,54,-1,b,0,3
53,56,1,b,1,3
53,57,-1,b,0,3
54,0,1,b,1,3
54,0,1,b,2,3
54,4,-1,b,1,3
54,4,-1,b,0,3
54,6,1,b,1,3
54,6,1,b,2,3
54,9,-1,b,1,3
54,9,1,y,1,4
54,9,-1,b,0,4
54,10,1,b,1,4
54,11,-1,b,0,4
54,12,1,b,1,4
54,17,1,b,2,4
54,19,-1,b,1,4
54,20,-1,b,0,4
54,21,1,b,1,4
54,23,-1,b,0,4
54,24,1,b,1,4
54,44,1,b,2,4
54,59,-1,b,1,4
55,0,1,b,2,4
55,1,-1,y,2,3
55,2,1,y,2,4
55,2,-1,b,1,4
55,3,1,b,2,4
55,12,-1,b,1,4
55,13,1,b,2,4
55,15,-1,y,1,4
55,17,1,y,2,4
55,17,1,b,3,4
55,18,-1,y,3,3
55,19,-1,b,2,3
55,19,-1,b,1,3
55,20,-1,b,0,3
55,21,1,b,1,3
55,21,1,b,2,3
55,21,1,b,3,3
55,21,1,y,3,4
55,22,-1,y,3,3
55,23,1,y,3,4
55,23,-1,y,3,3
55,24,-1,b,2,3
55,24,-1,b,1,3
55,24,1,b,2,3
55,25,-1,b,1,3
55,28,1,b,2,3
55,29,-1,b,1,3
55,30,-1,b,0,3
55,31,1,b,1,3
55,31,1,b,2,3
55,32,1,b,3,3
55,34,-1,b,2,3
55,35,-1,b,1,3
55,36,-1,b,0,3
55,44,1,b,1,3
55,47,-1,b,0,3
55,48,1,b,1,3
55,48,1,b,2,3
55,50,1,b,3,3
55,51,-1,b,2,3
55,52,1,b,3,3
55,54,-1,b,2,3
55,55,-1,b,1,3
55,55,1,b,2,3
55,55,-1,b,1,3
55,58,-1,b,0,3
56,1,1,b,1,3
56,2,1,b,0,3
56,2,1,b,1,3
56,3,-1,b,0,3
56,5,1,b,1,3
56,9,-1,b,0,3
56,20,1,b,1,3
56,25,-1,b,0,3
56,26,1,b,1,3
56,33,-1,b,0,3
56,38,1,b,1,3
56,41,-1,b,0,3
56,42,1,b,1,3
56,45,-1,y,1,2
56,45,-1,b,0,2
56,46,1,y,0,3
57,12,1,y,0,4
57,21,1,b,1,4
57,25,-1,b,0,4
57,26,1,b,1,4
57,43,-1,y,1,3
57,44,-1,b,0,3
57,45,1,y,0,4
57,45,1,b,1,4
57,51,-1,b,0,4
57,52,1,b,1,4
57,53,-1,b,0,4
57,54,1,b,1,4
57,56,1,b,2,4
57,59,-1,b,1,4
58,0,1,b,2,4
58,1,-1,b,1,4
58,2,-1,b,0,4
58,4,1,b,1,4
58,5,1,b,2,4
58,7,-1,y,2,3
58,8,-1,b,1,3
58,9,-1,b,0,3
58,24,1,b,1,3
58,33,-1,b,0,3
58,34,1,b,1,3
58,35,1,b,2,3
58,37,-1,y,2,2
58,37,-1,b,1,2
58,38,1,y,1,3
58,45,-1,b,0,3
58,49,1,b,1,3
58,49,-1,y,1,2
58,51,-1,b,0,2
58,53,1,b,1,2
58,53,1,y,1,3
58,56,-1,b,0,3
59,11,-1,y,0,2
59,13,1,y,0,3
59,50,1,b,1,3
59,54,1,y,1,4
