\relax 
\citation{ctrax}
\citation{ethovision}
\citation{ctrax}
\newlabel{s:intro}{{}{1}}
\citation{Saltz:2011}
\citation{ChenMarjoram:2014}
\citation{jaaba}
\citation{ArdekaniTavare:2013}
\citation{opencv}
\citation{imagej}
\citation{Saber1996,Sural2002,Park2012}
\citation{Wyszecki1982}
\citation{Park2012}
\citation{Wyszecki1982}
\newlabel{s:methods}{{}{2}}
\citation{R}
\citation{scikit}
\citation{Saltz:2011}
\citation{ArdekaniTavare:2013}
\newlabel{s:results}{{}{5}}
\@writefile{lot}{\contentsline {table}{\numberline {1}{\ignorespaces \relax \fontsize  {10.95}{13.6}\selectfont  \abovedisplayskip 11\p@ plus3\p@ minus6\p@ \abovedisplayshortskip \z@ plus3\p@ \belowdisplayshortskip 6.5\p@ plus3.5\p@ minus3\p@ \def \leftmargin \leftmargini \topsep \z@ \parsep \parskip \itemsep \z@ {\leftmargin \leftmargini \topsep 9\p@ plus3\p@ minus5\p@ \parsep 4.5\p@ plus2\p@ minus\p@ \itemsep \parsep }\belowdisplayskip \abovedisplayskip {Performance of the blob algorithm output (Blob), and TABU trajectory output. Counting error ($E$), and Directionality ($D$) bias in counting is shown. Empirical (Real) and estimated fly patch-joining or leaving rates (Jump) are also shown for raw blob data and processed trajectories.}\relax }}{6}}
\providecommand*\caption@xref[2]{\@setref\relax\@undefined{#1}}
\newlabel{BlobTabu}{{1}{6}}
\@writefile{lof}{\contentsline {figure}{\numberline {1}{\ignorespaces \relax \fontsize  {10.95}{13.6}\selectfont  \abovedisplayskip 11\p@ plus3\p@ minus6\p@ \abovedisplayshortskip \z@ plus3\p@ \belowdisplayshortskip 6.5\p@ plus3.5\p@ minus3\p@ \def \leftmargin \leftmargini \topsep \z@ \parsep \parskip \itemsep \z@ {\leftmargin \leftmargini \topsep 9\p@ plus3\p@ minus5\p@ \parsep 4.5\p@ plus2\p@ minus\p@ \itemsep \parsep }\belowdisplayskip \abovedisplayskip {Heat map of the distribution of per-fly over- and under-counts ($D$) as function of the number of flies on a patch for each frame across 5 test videos.}\relax }}{6}}
\newlabel{biasplot}{{1}{6}}
\@writefile{lot}{\contentsline {table}{\numberline {2}{\ignorespaces \relax \fontsize  {10.95}{13.6}\selectfont  \abovedisplayskip 11\p@ plus3\p@ minus6\p@ \abovedisplayshortskip \z@ plus3\p@ \belowdisplayshortskip 6.5\p@ plus3.5\p@ minus3\p@ \def \leftmargin \leftmargini \topsep \z@ \parsep \parskip \itemsep \z@ {\leftmargin \leftmargini \topsep 9\p@ plus3\p@ minus5\p@ \parsep 4.5\p@ plus2\p@ minus\p@ \itemsep \parsep }\belowdisplayskip \abovedisplayskip {Performance measures of ML algorithms for Multifly calling on 3-fold cross validation. The accuracy, sensitivity, specificity, and area under the curve scores are shown for each. Ranks among ML methods for each performance score are given in brackets.}\relax }}{7}}
\newlabel{PerformanceOnTrained}{{2}{7}}
\@writefile{lot}{\contentsline {table}{\numberline {3}{\ignorespaces \relax \fontsize  {10.95}{13.6}\selectfont  \abovedisplayskip 11\p@ plus3\p@ minus6\p@ \abovedisplayshortskip \z@ plus3\p@ \belowdisplayshortskip 6.5\p@ plus3.5\p@ minus3\p@ \def \leftmargin \leftmargini \topsep \z@ \parsep \parskip \itemsep \z@ {\leftmargin \leftmargini \topsep 9\p@ plus3\p@ minus5\p@ \parsep 4.5\p@ plus2\p@ minus\p@ \itemsep \parsep }\belowdisplayskip \abovedisplayskip {Evaluation of the ML algorithm performance for Multifly calling on non-training videos. The minimum to maximum range of accuracy, sensitivity, and specificity scores are shown for each, in comparison with the input trajectory data (TABU).}\relax }}{7}}
\newlabel{PerformanceOnIndependent}{{3}{7}}
\@writefile{lot}{\contentsline {table}{\numberline {4}{\ignorespaces \relax \fontsize  {10.95}{13.6}\selectfont  \abovedisplayskip 11\p@ plus3\p@ minus6\p@ \abovedisplayshortskip \z@ plus3\p@ \belowdisplayshortskip 6.5\p@ plus3.5\p@ minus3\p@ \def \leftmargin \leftmargini \topsep \z@ \parsep \parskip \itemsep \z@ {\leftmargin \leftmargini \topsep 9\p@ plus3\p@ minus5\p@ \parsep 4.5\p@ plus2\p@ minus\p@ \itemsep \parsep }\belowdisplayskip \abovedisplayskip {Performance measures of the Sex classifier on 3-fold cross validation. The accuracy, sensitivity, specificity, precision and area under the curve scores are shown for each.}\relax }}{8}}
\newlabel{sexCV}{{4}{8}}
\@writefile{lot}{\contentsline {table}{\numberline {5}{\ignorespaces \relax \fontsize  {10.95}{13.6}\selectfont  \abovedisplayskip 11\p@ plus3\p@ minus6\p@ \abovedisplayshortskip \z@ plus3\p@ \belowdisplayshortskip 6.5\p@ plus3.5\p@ minus3\p@ \def \leftmargin \leftmargini \topsep \z@ \parsep \parskip \itemsep \z@ {\leftmargin \leftmargini \topsep 9\p@ plus3\p@ minus5\p@ \parsep 4.5\p@ plus2\p@ minus\p@ \itemsep \parsep }\belowdisplayskip \abovedisplayskip {Evaluation of the Sex classifier performance on non-training videos. The mean accuracy, sensitivity and specificity scores across the videos are shown.}\relax }}{8}}
\newlabel{sexGT}{{5}{8}}
\@writefile{lot}{\contentsline {table}{\numberline {6}{\ignorespaces \relax \fontsize  {10.95}{13.6}\selectfont  \abovedisplayskip 11\p@ plus3\p@ minus6\p@ \abovedisplayshortskip \z@ plus3\p@ \belowdisplayshortskip 6.5\p@ plus3.5\p@ minus3\p@ \def \leftmargin \leftmargini \topsep \z@ \parsep \parskip \itemsep \z@ {\leftmargin \leftmargini \topsep 9\p@ plus3\p@ minus5\p@ \parsep 4.5\p@ plus2\p@ minus\p@ \itemsep \parsep }\belowdisplayskip \abovedisplayskip {Evaluation of the Chase classifier performance on 3-fold cross validation. The accuracy, sensitivity, specificity, precision and area under the curve scores are shown for each.}\relax }}{8}}
\newlabel{chaseCV}{{6}{8}}
\citation{ctrax}
\citation{ArdekaniTavare:2013}
\citation{ctrax}
\@writefile{lot}{\contentsline {table}{\numberline {7}{\ignorespaces \relax \fontsize  {10.95}{13.6}\selectfont  \abovedisplayskip 11\p@ plus3\p@ minus6\p@ \abovedisplayshortskip \z@ plus3\p@ \belowdisplayshortskip 6.5\p@ plus3.5\p@ minus3\p@ \def \leftmargin \leftmargini \topsep \z@ \parsep \parskip \itemsep \z@ {\leftmargin \leftmargini \topsep 9\p@ plus3\p@ minus5\p@ \parsep 4.5\p@ plus2\p@ minus\p@ \itemsep \parsep }\belowdisplayskip \abovedisplayskip {Evaluation of the Chase classifier performance on non-training videos. The accuracy, sensitivity, and specificity scores are shown for each.}\relax }}{9}}
\newlabel{chaseGT}{{7}{9}}
\@writefile{lot}{\contentsline {table}{\numberline {8}{\ignorespaces \relax \fontsize  {10.95}{13.6}\selectfont  \abovedisplayskip 11\p@ plus3\p@ minus6\p@ \abovedisplayshortskip \z@ plus3\p@ \belowdisplayshortskip 6.5\p@ plus3.5\p@ minus3\p@ \def \leftmargin \leftmargini \topsep \z@ \parsep \parskip \itemsep \z@ {\leftmargin \leftmargini \topsep 9\p@ plus3\p@ minus5\p@ \parsep 4.5\p@ plus2\p@ minus\p@ \itemsep \parsep }\belowdisplayskip \abovedisplayskip {Behavioral profiles of the 5 fly videos (v1---v5), with the number of females:males in the experiment (but not necessarily in frame) shown in brackets. The percentage of frames containing at least one of these behaviors is shown. Behavioral annotations were obtained using JAABA.}\relax }}{9}}
\newlabel{flyProfiles}{{8}{9}}
\newlabel{s:discuss}{{}{9}}
\bibdata{MarjoramRefsMarch2014}
\bibcite{imagej}{1}
\bibcite{ArdekaniTavare:2013}{2}
\bibcite{opencv}{3}
\bibcite{ctrax}{4}
\bibcite{ChenMarjoram:2014}{5}
\bibcite{jaaba}{6}
\bibcite{ethovision}{7}
\bibcite{Park2012}{8}
\bibcite{scikit}{9}
\bibcite{R}{10}
\bibcite{Saber1996}{11}
\bibcite{Saltz:2011}{12}
\bibcite{Sural2002}{13}
\bibcite{Wyszecki1982}{14}
\bibstyle{plain}
